{
  "routes": [
    {
      "method": "GET",
      "path": "/customers",
      "handler": "Customer.find",
      "config": {
        "policies": []
      }
    },
    {
      "method": "GET",
      "path": "/customers/count",
      "handler": "Customer.count",
      "config": {
        "policies": []
      }
    },
    {
      "method": "GET",
      "path": "/customers/:_id",
      "handler": "Customer.findOne",
      "config": {
        "policies": []
      }
    },
    {
      "method": "POST",
      "path": "/customers",
      "handler": "Customer.create",
      "config": {
        "policies": []
      }
    },
    {
      "method": "PUT",
      "path": "/customers/:_id",
      "handler": "Customer.update",
      "config": {
        "policies": []
      }
    },
    {
      "method": "DELETE",
      "path": "/customers/:_id",
      "handler": "Customer.delete",
      "config": {
        "policies": []
      }
    }
  ]
}
