{
  "connection": "default",
  "collectionName": "bed",
  "info": {
    "name": "bed",
    "description": ""
  },
  "options": {
    "timestamps": [
      "createdAt",
      "updatedAt"
    ]
  },
  "attributes": {
    "bedno": {
      "type": "string"
    },
    "room": {
      "model": "room",
      "via": "bedmanagements"
    },
    "charge": {
      "type": "integer"
    }
  }
}